{
	"controllerDirectory": "Controllers",

	"isAPI": true,
	"apiRoot": "/api",

	"database": {
		"MelodicContext": {
			"name": "MelodicTest",
			"driver": "mysql:host=localhost;dbname=MelodicTest",
			"username": "melodic",
			"password": "harmony",
			"options": {}
		}
	}
}